dump.vcd
$date
	Thu Aug 17 03:56:05 2023
$end
$version
	Icarus Verilog
$end
$timescale
	1ps
$end
$scope module tb $end
$scope module dut $end
$var wire 1 ! clk $end
$var wire 1 " reset $end
$var wire 32 # read_data [31:0] $end
$var wire 1 $ mem_write $end
$var wire 32 % instr_address [31:0] $end
$var wire 32 & instr [31:0] $end
$var wire 32 ' data_mem_write_data [31:0] $end
$var wire 32 ( data_mem_write_address [31:0] $end
$var wire 32 ) data_mem_read_address [31:0] $end
$scope module data_mem $end
$var wire 1 ! clk $end
$var wire 32 * read_data [31:0] $end
$var wire 32 + write_data [31:0] $end
$var wire 32 , write_address [31:0] $end
$var wire 32 - read_address [31:0] $end
$var wire 1 $ mem_write $end
$var parameter 32 . propDelay $end
$upscope $end
$scope module instr_mem $end
$var wire 32 / read_address [31:0] $end
$var parameter 32 0 propDelay $end
$var reg 32 1 instr [31:0] $end
$upscope $end
$scope module mips $end
$var wire 1 ! clk $end
$var wire 32 2 current_instr [31:0] $end
$var wire 32 3 data_mem_out [31:0] $end
$var wire 32 4 data_mem_read_address [31:0] $end
$var wire 32 5 data_mem_write_address [31:0] $end
$var wire 32 6 data_mem_write_data [31:0] $end
$var wire 1 " reset $end
$var wire 1 7 zero_flag $end
$var wire 5 8 write_mux_out [4:0] $end
$var wire 32 9 sign_extend_out [31:0] $end
$var wire 32 : shift_address_out [31:0] $end
$var wire 32 ; reg_write_data [31:0] $end
$var wire 1 < reg_write $end
$var wire 1 = reg_dest $end
$var wire 32 > reg_data_2 [31:0] $end
$var wire 32 ? reg_data_1 [31:0] $end
$var wire 1 @ pc_src $end
$var wire 32 A pc_mux_out [31:0] $end
$var wire 32 B next_instr_address [31:0] $end
$var wire 1 $ mem_write $end
$var wire 1 C mem_to_reg $end
$var wire 32 D jump_address [31:0] $end
$var wire 32 E instr_address [31:0] $end
$var wire 32 F alu_src_mux_out [31:0] $end
$var wire 1 G alu_src $end
$var wire 32 H alu_result [31:0] $end
$var wire 3 I alu_op [2:0] $end
$scope module alu $end
$var wire 32 J b_in [31:0] $end
$var wire 3 K alu_op [2:0] $end
$var wire 32 L a_in [31:0] $end
$var reg 32 M alu_result [31:0] $end
$var reg 1 N carry $end
$var reg 1 7 zero_flag $end
$upscope $end
$scope module alu_src_mux $end
$var wire 32 O muxout [31:0] $end
$var wire 32 P in1 [31:0] $end
$var wire 32 Q in0 [31:0] $end
$var wire 1 G control $end
$var parameter 32 R width $end
$upscope $end
$scope module branch_address_adder $end
$var wire 32 S b_in [31:0] $end
$var wire 32 T adder_out [31:0] $end
$var wire 32 U a_in [31:0] $end
$upscope $end
$scope module cu $end
$var wire 6 V op_code [5:0] $end
$var wire 6 W op_funct [5:0] $end
$var wire 1 @ pc_src $end
$var wire 1 7 zero_in $end
$var wire 1 X sw_wire $end
$var wire 1 Y sub_wire $end
$var wire 1 Z slt_wire $end
$var wire 1 [ slt_imm_wire $end
$var wire 1 \ or_wire $end
$var wire 1 ] or_imm_wire $end
$var wire 1 ^ lw_wire $end
$var wire 1 _ bne_wire $end
$var wire 1 ` and_wire $end
$var wire 1 a and_imm_wire $end
$var wire 1 b add_wire $end
$var wire 1 c add_imm_wire $end
$var reg 3 d alu_op [2:0] $end
$var reg 1 G alu_src $end
$var reg 1 C mem_to_reg $end
$var reg 1 $ mem_write $end
$var reg 1 = reg_dst $end
$var reg 1 < reg_write $end
$upscope $end
$scope module mem_to_reg_mux $end
$var wire 1 C control $end
$var wire 32 e in0 [31:0] $end
$var wire 32 f in1 [31:0] $end
$var wire 32 g muxout [31:0] $end
$var parameter 32 h width $end
$upscope $end
$scope module pc $end
$var wire 1 ! clk $end
$var wire 1 " reset $end
$var wire 32 i pc_in [31:0] $end
$var reg 32 j instr_address [31:0] $end
$upscope $end
$scope module pc_adder $end
$var wire 32 k a_in [31:0] $end
$var wire 32 l b_in [31:0] $end
$var wire 32 m adder_out [31:0] $end
$upscope $end
$scope module pc_src_mux $end
$var wire 1 @ control $end
$var wire 32 n in0 [31:0] $end
$var wire 32 o in1 [31:0] $end
$var wire 32 p muxout [31:0] $end
$var parameter 32 q width $end
$upscope $end
$scope module reg_dest_mux $end
$var wire 1 = control $end
$var wire 5 r in0 [4:0] $end
$var wire 5 s in1 [4:0] $end
$var wire 5 t muxout [4:0] $end
$var parameter 32 u width $end
$upscope $end
$scope module reg_file $end
$var wire 1 ! clk $end
$var wire 5 v read_address_1 [4:0] $end
$var wire 5 w read_address_2 [4:0] $end
$var wire 1 < reg_write_en $end
$var wire 5 x write_address [4:0] $end
$var wire 32 y write_data [31:0] $end
$var reg 32 z read_data_1 [31:0] $end
$var reg 32 { read_data_2 [31:0] $end
$var reg 32 | s0 [31:0] $end
$var reg 32 } s1 [31:0] $end
$var reg 32 ~ s2 [31:0] $end
$var reg 32 !" s3 [31:0] $end
$var reg 32 "" s4 [31:0] $end
$var reg 32 #" s5 [31:0] $end
$var reg 32 $" s6 [31:0] $end
$var reg 32 %" s7 [31:0] $end
$var reg 32 &" t0 [31:0] $end
$var reg 32 '" t1 [31:0] $end
$var reg 32 (" t2 [31:0] $end
$var reg 32 )" t3 [31:0] $end
$var reg 32 *" t4 [31:0] $end
$var reg 32 +" t5 [31:0] $end
$var reg 32 ," t6 [31:0] $end
$var reg 32 -" t7 [31:0] $end
$var reg 32 ." t8 [31:0] $end
$var reg 32 /" t9 [31:0] $end
$upscope $end
$scope module sign_extend $end
$var wire 16 0" in [15:0] $end
$var wire 32 1" out [31:0] $end
$upscope $end
$scope module sl $end
$var wire 32 2" in [31:0] $end
$var wire 32 3" out [31:0] $end
$var parameter 32 4" shift_amount $end
$upscope $end
$upscope $end
$upscope $end
$upscope $end
$enddefinitions $end
$comment Show the parameter values. $end
$dumpall
b10 4"
b101 u
b100000 q
b100000 h
b100000 R
b10 0
b10 .
$end
#0
$dumpvars
bx00 3"
bx 2"
bx 1"
bx 0"
bx /"
bx ."
bx -"
bx ,"
bx +"
bx *"
bx )"
bx ("
bx '"
bx &"
bx %"
bx $"
bx #"
bx ""
bx !"
bx ~
bx }
bx |
bx {
bx z
bx y
bx x
bx w
bx v
bx t
bx s
bx r
bx p
bx o
b100 n
b100 m
b100 l
b0 k
b0 j
bx i
bx g
bx f
bx e
b0 d
xc
xb
xa
x`
x_
x^
x]
x\
x[
xZ
xY
xX
bx W
bx V
bx00 U
bx T
b100 S
bx Q
bx P
bx O
0N
bx M
bx L
b0 K
bx J
b0 I
bx H
0G
bx F
b0 E
bx D
0C
b100 B
bx A
x@
bx ?
bx >
0=
0<
bx ;
bx00 :
bx 9
bx 8
x7
bx 6
bx 5
bx 4
bx 3
bx 2
bx 1
b0 /
bx -
bx ,
bx +
bx *
bx )
bx (
bx '
bx &
b0 %
0$
bx #
1"
1!
$end
#2000
xN
0@
b10 I
b10 K
b10 d
1G
1<
0b
0Y
0`
0\
0Z
x7
bx (
bx ,
bx 5
bx )
bx -
bx 4
bx H
bx M
bx e
0^
0X
0_
1c
0[
0a
0]
b0 ?
b0 L
b0 z
b11000 D
b11000 T
b11000 o
b10100 :
b10100 U
b10100 3"
b1000 V
b101 W
b1000 r
b0 s
b0 v
b1000 w
b101 9
b101 P
b101 1"
b101 2"
b101 0"
b100000000010000000000000000101 &
b100000000010000000000000000101 1
b100000000010000000000000000101 2
#3000
07
b101 (
b101 ,
b101 5
b101 )
b101 -
b101 4
b101 H
b101 M
b101 e
0N
b101 F
b101 J
b101 O
b100 A
b100 i
b100 p
b1000 8
b1000 t
b1000 x
#4000
b101 ;
b101 g
b101 y
#5000
0!
#10000
b101 '
b101 +
b101 6
b101 >
b101 Q
b101 {
b101 &"
b11100 D
b11100 T
b11100 o
b1000 B
b1000 S
b1000 m
b1000 n
b100 %
b100 /
b100 E
b100 j
b100 k
1!
0"
#11000
b1000 A
b1000 i
b1000 p
#12000
bx '
bx +
bx 6
bx >
bx Q
bx {
b100000 D
b100000 T
b100000 o
b11000 :
b11000 U
b11000 3"
b110 W
b1001 r
b1001 w
b110 9
b110 P
b110 1"
b110 2"
b110 0"
b100000000010010000000000000110 &
b100000000010010000000000000110 1
b100000000010010000000000000110 2
#13000
b110 (
b110 ,
b110 5
b110 )
b110 -
b110 4
b110 H
b110 M
b110 e
b1001 8
b1001 t
b1001 x
b110 F
b110 J
b110 O
#14000
b110 ;
b110 g
b110 y
#15000
0!
#20000
b110 '
b110 +
b110 6
b110 >
b110 Q
b110 {
b110 '"
b100100 D
b100100 T
b100100 o
b1100 B
b1100 S
b1100 m
b1100 n
b1000 %
b1000 /
b1000 E
b1000 j
b1000 k
1!
#21000
b1100 A
b1100 i
b1100 p
#22000
b1 (
b1 ,
b1 5
b1 )
b1 -
b1 4
b1 H
b1 M
b1 e
b111 I
b111 K
b111 d
0c
1[
b10000 D
b10000 T
b10000 o
b100 :
b100 U
b100 3"
b1010 V
b1 W
b1 9
b1 P
b1 1"
b1 2"
b1 0"
b101000000010010000000000000001 &
b101000000010010000000000000001 1
b101000000010010000000000000001 2
#23000
b1 ;
b1 g
b1 y
b1 F
b1 J
b1 O
#25000
0!
#30000
b1 '
b1 +
b1 6
b1 >
b1 Q
b1 {
b1 '"
b10100 D
b10100 T
b10100 o
b10000 B
b10000 S
b10000 m
b10000 n
b1100 %
b1100 /
b1100 E
b1100 j
b1100 k
1!
#31000
b10000 A
b10000 i
b10000 p
#32000
b10000 D
b10000 T
b10000 o
b0 :
b0 U
b0 3"
b0 W
b0 9
b0 P
b0 1"
b0 2"
b0 0"
b101000000010010000000000000000 &
b101000000010010000000000000000 1
b101000000010010000000000000000 2
#33000
17
b0 (
b0 ,
b0 5
b0 )
b0 -
b0 4
b0 H
b0 M
b0 e
b0 F
b0 J
b0 O
#34000
b0 ;
b0 g
b0 y
#35000
0!
#40000
b0 '
b0 +
b0 6
b0 >
b0 Q
b0 {
b0 '"
b10100 D
b10100 T
b10100 o
b10100 B
b10100 S
b10100 m
b10100 n
b10000 %
b10000 /
b10000 E
b10000 j
b10000 k
1!
#41000
b10100 A
b10100 i
b10100 p
#42000
b0 I
b0 K
b0 d
0[
1a
b101 ?
b101 L
b101 z
b1010000 D
b1010000 T
b1010000 o
b111100 :
b111100 U
b111100 3"
b1100 V
b1111 W
b1000 v
b1111 9
b1111 P
b1111 1"
b1111 2"
b1111 0"
b110001000010010000000000001111 &
b110001000010010000000000001111 1
b110001000010010000000000001111 2
#43000
07
b101 (
b101 ,
b101 5
b101 )
b101 -
b101 4
b101 H
b101 M
b101 e
b1111 F
b1111 J
b1111 O
#44000
b101 ;
b101 g
b101 y
#45000
0!
#50000
b101 '
b101 +
b101 6
b101 >
b101 Q
b101 {
b101 '"
b1010100 D
b1010100 T
b1010100 o
b11000 B
b11000 S
b11000 m
b11000 n
b10100 %
b10100 /
b10100 E
b10100 j
b10100 k
1!
#51000
b11000 A
b11000 i
b11000 p
#52000
b1111 (
b1111 ,
b1111 5
b1111 )
b1111 -
b1111 4
b1111 H
b1111 M
b1111 e
b1 I
b1 K
b1 d
0a
1]
b111000 D
b111000 T
b111000 o
b100000 :
b100000 U
b100000 3"
b1101 V
b1000 W
b1000 9
b1000 P
b1000 1"
b1000 2"
b1000 0"
b110101000010010000000000001000 &
b110101000010010000000000001000 1
b110101000010010000000000001000 2
#53000
b1101 (
b1101 ,
b1101 5
b1101 )
b1101 -
b1101 4
b1101 H
b1101 M
b1101 e
b1111 ;
b1111 g
b1111 y
b1000 F
b1000 J
b1000 O
#54000
b1101 ;
b1101 g
b1101 y
#55000
0!
#60000
b1101 '
b1101 +
b1101 6
b1101 >
b1101 Q
b1101 {
b1101 '"
b111100 D
b111100 T
b111100 o
b11100 B
b11100 S
b11100 m
b11100 n
b11000 %
b11000 /
b11000 E
b11000 j
b11000 k
1!
#61000
b11100 A
b11100 i
b11100 p
#62000
b10 I
b10 K
b10 d
0G
1=
1b
0]
b10100000010011100 D
b10100000010011100 T
b10100000010011100 o
b10100000010000000 :
b10100000010000000 U
b10100000010000000 3"
b0 V
b100000 W
b1010 s
b101000000100000 9
b101000000100000 P
b101000000100000 1"
b101000000100000 2"
b101000000100000 0"
b1000010010101000000100000 &
b1000010010101000000100000 1
b1000010010101000000100000 2
#63000
b10010 (
b10010 ,
b10010 5
b10010 )
b10010 -
b10010 4
b10010 H
b10010 M
b10010 e
b1010 8
b1010 t
b1010 x
b1101 F
b1101 J
b1101 O
#64000
b10010 ;
b10010 g
b10010 y
#65000
0!
#70000
b10010 ("
b10100000010100000 D
b10100000010100000 T
b10100000010100000 o
b100000 B
b100000 S
b100000 m
b100000 n
b11100 %
b11100 /
b11100 E
b11100 j
b11100 k
1!
#71000
b100000 A
b100000 i
b100000 p
#72000
1$
1G
0<
0=
0b
b1101 (
b1101 ,
b1101 5
b1101 )
b1101 -
b1101 4
b1101 H
b1101 M
b1101 e
1X
b0 ?
b0 L
b0 z
b10010 '
b10010 +
b10010 6
b10010 >
b10010 Q
b10010 {
b110000 D
b110000 T
b110000 o
b10000 :
b10000 U
b10000 3"
b101011 V
b100 W
b1010 r
b0 s
b0 v
b1010 w
b100 9
b100 P
b100 1"
b100 2"
b100 0"
b10101100000010100000000000000100 &
b10101100000010100000000000000100 1
b10101100000010100000000000000100 2
#73000
b100 (
b100 ,
b100 5
b100 )
b100 -
b100 4
b100 H
b100 M
b100 e
b1101 ;
b1101 g
b1101 y
b100 F
b100 J
b100 O
#74000
b100 ;
b100 g
b100 y
#75000
0!
#80000
b110100 D
b110100 T
b110100 o
b100100 B
b100100 S
b100100 m
b100100 n
b100000 %
b100000 /
b100000 E
b100000 j
b100000 k
1!
#81000
b100100 A
b100100 i
b100100 p
#82000
x@
0$
b0 I
b0 K
b0 d
0G
xb
xY
x`
x\
xZ
x7
0N
b0x00 (
b0x00 ,
b0x00 5
b0x00 )
b0x00 -
b0x00 4
b0x00 H
b0x00 M
b0x00 e
x^
xX
x_
xc
x[
xa
x]
bx ?
bx L
bx z
bx '
bx +
bx 6
bx >
bx Q
bx {
bx D
bx T
bx o
bx00 :
bx00 U
bx00 3"
bx V
bx W
bx r
bx s
bx v
bx w
bx 9
bx P
bx 1"
bx 2"
bx 0"
bx &
bx 1
bx 2
b10010 #
b10010 *
b10010 3
b10010 f
#83000
bx (
bx ,
bx 5
bx )
bx -
bx 4
bx H
bx M
bx e
bx A
bx i
bx p
b0x00 ;
b0x00 g
b0x00 y
bx 8
bx t
bx x
bx F
bx J
bx O
#84000
bx ;
bx g
bx y
bx #
bx *
bx 3
bx f
#85000
0!
#90000
bx B
bx S
bx m
bx n
bx %
bx /
bx E
bx j
bx k
1!
